{
  "$schema": "./node_modules/@dagonmetric/angular-build/src/schemas/schema.json#",
  "apps": [
    {
      "name": "app1",
      "root": ".",
      "outputPath": "dist",
      "entry": "src/main.ts",
      "polyfills": [
        "src/polyfills.ts"
      ],
      "tsConfig": "tsconfig.app.json",
      "htmlInject": {
        "index": "src/index.html"
      }
    }
  ]
}
